…
<img src="man/figures/README-unnamed-chunk-2-1.png" width="100%" />

``` r
landcover_coma = lsp_thumbprint(landcover, type = "coma", window = 200)
landcover_coma
#> # A tibble: 232 x 3
#>       id na_prop signature        
#>  * <int>   <dbl> <list>           
#>  1     3  0.0992 <int[,5] [5 × 5]>
#>  2     4  0.145  <int[,5] [5 × 5]>
#>  3    38  0.255  <int[,5] [5 × 5]>
#>  4    39  0      <int[,5] [5 × 5]>
#>  5    40  0      <int[,5] [5 × 5]>
#>  6    41  0      <int[,5] [5 × 5]>
#>  7    42  0      <int[,5] [5 × 5]>
#>  8    43  0.115  <int[,5] [5 × 5]>
#>  9    77  0      <int[,5] [5 × 5]>
#> 10    78  0      <int[,5] [5 × 5]>
#> # … with 222 more rows
```
…
