Signatures • motif
…
"coma" - one layer

lsp_thumbprint(landcover, type = "coma", window = 100, threshold = 0.9)
#> # A tibble: 1,084 x 3
#>       id na_prop signature        
#>  * <int>   <dbl> <list>           
#>  1     5  0.357  <int[,7] [7 × 7]>
#>  2     6  0.0398 <int[,7] [7 × 7]>
#>  3     7  0.114  <int[,7] [7 × 7]>
#>  4     8  0.465  <int[,7] [7 × 7]>
#>  5     9  0.884  <int[,7] [7 × 7]>
#>  6    76  0.645  <int[,7] [7 × 7]>
#>  7    77  0.480  <int[,7] [7 × 7]>
#>  8    78  0.164  <int[,7] [7 × 7]>
#>  9    79  0      <int[,7] [7 × 7]>
#> 10    80  0      <int[,7] [7 × 7]>
#> # … with 1,074 more rows

lsp_thumbprint(landcover, type = "cove", window = 100, threshold = 0.9)
#> # A tibble: 1,084 x 3
#>       id na_prop signature          
#>  * <int>   <dbl> <list>             
#>  1     5  0.357  <dbl[,49] [1 × 49]>
#>  2     6  0.0398 <dbl[,49] [1 × 49]>
#>  3     7  0.114  <dbl[,49] [1 × 49]>
#>  4     8  0.465  <dbl[,49] [1 × 49]>
#>  5     9  0.884  <dbl[,49] [1 × 49]>
#>  6    76  0.645  <dbl[,49] [1 × 49]>
#>  7    77  0.480  <dbl[,49] [1 × 49]>
#>  8    78  0.164  <dbl[,49] [1 × 49]>
#>  9    79  0      <dbl[,49] [1 × 49]>
#> 10    80  0      <dbl[,49] [1 × 49]>
#> # … with 1,074 more rows
…
lsp_thumbprint(c(landcover, random_ndvi), type = "wecove", threshold = 0.9)
#> # A tibble: 1 x 3
#>      id na_prop signature          
#> * <int>   <dbl> <list>             
#> 1     1   0.666 <dbl[,49] [1 × 49]>

"incoma" - two or more layers

lsp_thumbprint(c(landcover, landform), type = "incoma",
               window = 100, threshold = 0.9)
#> # A tibble: 1,084 x 3
#>       id na_prop signature           
#>  * <int>   <dbl> <list>              
#>  1     5  0.357  <int[,22] [22 × 22]>
#>  2     6  0.0398 <int[,22] [22 × 22]>
#>  3     7  0.114  <int[,22] [22 × 22]>
#>  4     8  0.465  <int[,22] [22 × 22]>
#>  5     9  0.884  <int[,22] [22 × 22]>
#>  6    76  0.645  <int[,22] [22 × 22]>
#>  7    77  0.480  <int[,22] [22 × 22]>
#>  8    78  0.164  <int[,22] [22 × 22]>
#>  9    79  0      <int[,22] [22 × 22]>
#> 10    80  0      <int[,22] [22 × 22]>
#> # … with 1,074 more rows

lsp_thumbprint(c(landcover, landform), type = "incove",
               window = 100, threshold = 0.9)
#> # A tibble: 1,084 x 3
#>       id na_prop signature            
#>  * <int>   <dbl> <list>               
#>  1     5  0.357  <dbl[,484] [1 × 484]>
#>  2     6  0.0398 <dbl[,484] [1 × 484]>
#>  3     7  0.114  <dbl[,484] [1 × 484]>
#>  4     8  0.465  <dbl[,484] [1 × 484]>
#>  5     9  0.884  <dbl[,484] [1 × 484]>
#>  6    76  0.645  <dbl[,484] [1 × 484]>
#>  7    77  0.480  <dbl[,484] [1 × 484]>
#>  8    78  0.164  <dbl[,484] [1 × 484]>
#>  9    79  0      <dbl[,484] [1 × 484]>
#> 10    80  0      <dbl[,484] [1 × 484]>
#> # … with 1,074 more rows

"composition" - one layer

lsp_thumbprint(landcover, type = "composition",
               window = 100, threshold = 0.9)
#> # A tibble: 1,084 x 3
#>       id na_prop signature        
#>  * <int>   <dbl> <list>           
#>  1     5  0.357  <dbl[,7] [1 × 7]>
#>  2     6  0.0398 <dbl[,7] [1 × 7]>
#>  3     7  0.114  <dbl[,7] [1 × 7]>
#>  4     8  0.465  <dbl[,7] [1 × 7]>
#>  5     9  0.884  <dbl[,7] [1 × 7]>
#>  6    76  0.645  <dbl[,7] [1 × 7]>
#>  7    77  0.480  <dbl[,7] [1 × 7]>
#>  8    78  0.164  <dbl[,7] [1 × 7]>
#>  9    79  0      <dbl[,7] [1 × 7]>
#> 10    80  0      <dbl[,7] [1 × 7]>
#> # … with 1,074 more rows
…
