Types of spatial patterns' signatures • motif
…
A co-occurrence matrix ("coma") representation - one layer

The first type of signature is a co-occurrence matrix ("coma"). It requires just one layer (one attribute in a stars object).

coma_output = lsp_signature(landcover, type = "coma", window = 100)
coma_output
#> # A tibble: 1,084 x 3
#>       id na_prop signature        
#>  * <int>   <dbl> <list>           
#>  1     5  0.357  <int[,7] [7 × 7]>
#>  2     6  0.0398 <int[,7] [7 × 7]>
#>  3     7  0.114  <int[,7] [7 × 7]>
#>  4     8  0.465  <int[,7] [7 × 7]>
#>  5     9  0.884  <int[,7] [7 × 7]>
#>  6    76  0.645  <int[,7] [7 × 7]>
#>  7    77  0.480  <int[,7] [7 × 7]>
#>  8    78  0.164  <int[,7] [7 × 7]>
#>  9    79  0      <int[,7] [7 × 7]>
#> 10    80  0      <int[,7] [7 × 7]>
#> # … with 1,074 more rows
…
coma_output$signature[[1]]
#>   1     2 3 4 5 6   7
#> 1 0     5 0 2 0 0   0
#> 2 5 24258 0 7 0 0 114
#> 3 0     0 0 0 0 0   0
#> 4 2     7 0 4 0 0   0
#> 5 0     0 0 0 0 0   0
#> 6 0     0 0 0 0 0   0
#> 7 0   114 0 0 0 0 822

Co-occurrence vector ("cove") is rearrangement of a co-occurrence matrix into one-dimensional object:

cove_output = lsp_signature(landcover, type = "cove", window = 100)
cove_output
#> # A tibble: 1,084 x 3
#>       id na_prop signature          
#>  * <int>   <dbl> <list>             
#>  1     5  0.357  <dbl[,49] [1 × 49]>
#>  2     6  0.0398 <dbl[,49] [1 × 49]>
#>  3     7  0.114  <dbl[,49] [1 × 49]>
#>  4     8  0.465  <dbl[,49] [1 × 49]>
#>  5     9  0.884  <dbl[,49] [1 × 49]>
#>  6    76  0.645  <dbl[,49] [1 × 49]>
#>  7    77  0.480  <dbl[,49] [1 × 49]>
#>  8    78  0.164  <dbl[,49] [1 × 49]>
#>  9    79  0      <dbl[,49] [1 × 49]>
#> 10    80  0      <dbl[,49] [1 × 49]>
#> # … with 1,074 more rows

This representation can be used to compare different local landscapes.

Learn more about these representations at https://nowosad.github.io/comat/articles/coma.html.

A weighted co-occurrence matrix (wecoma) representation - two layers

The next type of signature is a weighted co-occurrence matrix ("wecoma"). It requires two layers - a stars object with two attributes. The first one is a categorical raster data, while the second one is a continuous raster data containing weights.

wecoma_output = lsp_signature(c(landcover, random_ndvi),
                               type = "wecoma", window = 100)
wecoma_output
#> # A tibble: 1,084 x 3
#>       id na_prop signature        
#>  * <int>   <dbl> <list>           
#>  1     5  0.357  <dbl[,7] [7 × 7]>
#>  2     6  0.0398 <dbl[,7] [7 × 7]>
#>  3     7  0.114  <dbl[,7] [7 × 7]>
#>  4     8  0.465  <dbl[,7] [7 × 7]>
#>  5     9  0.884  <dbl[,7] [7 × 7]>
#>  6    76  0.645  <dbl[,7] [7 × 7]>
#>  7    77  0.480  <dbl[,7] [7 × 7]>
#>  8    78  0.164  <dbl[,7] [7 × 7]>
#>  9    79  0      <dbl[,7] [7 × 7]>
#> 10    80  0      <dbl[,7] [7 × 7]>
#> # … with 1,074 more rows

Weighted co-occurrence vector ("wecove") is rearrangement of a weighted co-occurrence matrix into one-dimensional object:

wecove_output = lsp_signature(c(landcover, random_ndvi),
                               type = "wecove", window = 100)
wecove_output
#> # A tibble: 1,084 x 3
#>       id na_prop signature          
#>  * <int>   <dbl> <list>             
#>  1     5  0.357  <dbl[,49] [1 × 49]>
#>  2     6  0.0398 <dbl[,49] [1 × 49]>
#>  3     7  0.114  <dbl[,49] [1 × 49]>
#>  4     8  0.465  <dbl[,49] [1 × 49]>
#>  5     9  0.884  <dbl[,49] [1 × 49]>
#>  6    76  0.645  <dbl[,49] [1 × 49]>
#>  7    77  0.480  <dbl[,49] [1 × 49]>
#>  8    78  0.164  <dbl[,49] [1 × 49]>
#>  9    79  0      <dbl[,49] [1 × 49]>
#> 10    80  0      <dbl[,49] [1 × 49]>
#> # … with 1,074 more rows
…
Integrated co-occurrence vector ("incove") is rearrangement of an integrated co-occurrence matrix into one-dimensional object:

incove_output = lsp_signature(c(landcover, landform),
                               type = "incove", window = 100)

Learn more about these representations at https://nowosad.github.io/comat/articles/incoma.html

A composition representation ("composition") - one layer

A composition signature describes proportions of categories in a local landscape. It requires one layer (a stars object with one attribute).

composition_output = lsp_signature(landcover,
                                    type = "composition", window = 100)
composition_output
#> # A tibble: 1,084 x 3
#>       id na_prop signature        
#>  * <int>   <dbl> <list>           
#>  1     5  0.357  <dbl[,7] [1 × 7]>
#>  2     6  0.0398 <dbl[,7] [1 × 7]>
#>  3     7  0.114  <dbl[,7] [1 × 7]>
#>  4     8  0.465  <dbl[,7] [1 × 7]>
#>  5     9  0.884  <dbl[,7] [1 × 7]>
#>  6    76  0.645  <dbl[,7] [1 × 7]>
#>  7    77  0.480  <dbl[,7] [1 × 7]>
#>  8    78  0.164  <dbl[,7] [1 × 7]>
#>  9    79  0      <dbl[,7] [1 × 7]>
#> 10    80  0      <dbl[,7] [1 × 7]>
#> # … with 1,074 more rows
…
User-defined functions - one or more layers

The motif package also allows calculating signature based on a user-defined function. This function should accept only one argument, which is a list containing one or more matrices. For example my_fun() below counts how many non-NA cells exist in each local landscape.

my_fun = function(x){
  sum(!is.na(c(x[[1]])))
}

Importantly, we need to set normalization = "none" to prevent the normalization of the output.

my_fun_output = lsp_signature(landcover,
                               type = my_fun, window = 100,
                               normalization = "none")
my_fun_output
#> # A tibble: 1,084 x 3
#>       id na_prop signature
#>  * <int>   <dbl> <list>   
#>  1     5  0.357  <int [1]>
#>  2     6  0.0398 <int [1]>
#>  3     7  0.114  <int [1]>
#>  4     8  0.465  <int [1]>
#>  5     9  0.884  <int [1]>
#>  6    76  0.645  <int [1]>
#>  7    77  0.480  <int [1]>
#>  8    78  0.164  <int [1]>
#>  9    79  0      <int [1]>
#> 10    80  0      <int [1]>
#> # … with 1,074 more rows
…
