Extracting the proportion of different classes in many regular local landscapes • motif
…
New grid

One possible approach is just to set up size of a local landscape in the lsp_signature() function. For example, window = 100 divides the input raster into a number of non-overlapping 100 by 100 cells local landscapes. To extract the proportion of different classes in the landcover raster, we need to set type to "composition"1.

landcover_comp = lsp_signature(landcover,
                               type = "composition", 
                               threshold = 1, 
                               window = 100)

Information about the composition of each local landscape is stored in a list-column named signature.

landcover_comp
#> # A tibble: 2,886 x 3
#>       id na_prop signature    
#>  * <int>   <dbl> <list>       
#>  1     1  0.982  <dbl [1 × 7]>
#>  2     2  0.978  <dbl [1 × 7]>
#>  3     3  1      <dbl [1 × 7]>
#>  4     4  0.934  <dbl [1 × 7]>
#>  5     5  0.357  <dbl [1 × 7]>
#>  6     6  0.0398 <dbl [1 × 7]>
#>  7     7  0.114  <dbl [1 × 7]>
#>  8     8  0.465  <dbl [1 × 7]>
#>  9     9  0.884  <dbl [1 × 7]>
#> 10    10  1      <dbl [1 × 7]>
#> # … with 2,876 more rows

Objects of this structure can be next used in many spatial pattern-based analysis, such as search, comparision, or clustering. However, it could be useful for some operations to have each proportion as a separate column. This can be done with the lsp_restructure() function.

landcover_comp = lsp_restructure(landcover_comp)

Now, each land cover category has a separate column, but the columns’ names are meaningless. To add column names representing actual land cover categories, we can extract correct names from the landcover_comp object attributes.

true_colnames = attr(landcover_comp, "metadata")$vals[[1]]
names(landcover_comp)[3:ncol(landcover_comp)] = true_colnames
landcover_comp
#> # A tibble: 2,886 x 9
#>       id na_prop        `1`     `2`   `3`        `4`   `5`   `6`      `7`
#>  * <int>   <dbl>      <dbl>   <dbl> <dbl>      <dbl> <dbl> <dbl>    <dbl>
#>  1     1  0.982    0          0.5       0   0            0     0   0.5   
#>  2     2  0.978    0          0.568     0   0            0     0   0.432 
#>  3     3  1      NaN        NaN       NaN NaN          NaN   NaN NaN     
#>  4     4  0.934    0          0.691     0   0            0     0   0.309 
#>  5     5  0.357    0.000311   0.958     0   0.000778     0     0   0.0408
#>  6     6  0.0398   0.000833   0.977     0   0            0     0   0.0226
#>  7     7  0.114    0.000452   0.965     0   0            0     0   0.0341
#>  8     8  0.465    0          0.877     0   0            0     0   0.123 
#>  9     9  0.884    0.0344     0.552     0   0.000861     0     0   0.412 
#> 10    10  1      NaN        NaN       NaN NaN          NaN   NaN NaN     
#> # … with 2,876 more rows
…
The next steps are the same as in the first approach - we use the lsp_signature(), lsp_restructure(), and lsp_add_sf() functions. There are only two slight differences. Firstly, we use our my_grid object as the value of the window argument.

landcover_comp2 = lsp_signature(landcover,
                               type = "composition", 
                               threshold = 1,
                               window = my_grid)
landcover_comp2 = lsp_restructure(landcover_comp2)
names(landcover_comp2)[3:ncol(landcover_comp2)] = attr(landcover_comp2, "metadata")$vals[[1]]
landcover_comp2
#> # A tibble: 2,886 x 9
#>       id na_prop   `1`   `2`   `3`   `4`   `5`   `6`   `7`
#>  * <int>   <dbl> <dbl> <dbl> <dbl> <dbl> <dbl> <dbl> <dbl>
#>  1     1       1   NaN   NaN   NaN   NaN   NaN   NaN   NaN
#>  2     2       1   NaN   NaN   NaN   NaN   NaN   NaN   NaN
#>  3     3       1   NaN   NaN   NaN   NaN   NaN   NaN   NaN
#>  4     4       1   NaN   NaN   NaN   NaN   NaN   NaN   NaN
#>  5     5       1   NaN   NaN   NaN   NaN   NaN   NaN   NaN
#>  6     6       1   NaN   NaN   NaN   NaN   NaN   NaN   NaN
#>  7     7       1   NaN   NaN   NaN   NaN   NaN   NaN   NaN
#>  8     8       1   NaN   NaN   NaN   NaN   NaN   NaN   NaN
#>  9     9       1   NaN   NaN   NaN   NaN   NaN   NaN   NaN
#> 10    10       1   NaN   NaN   NaN   NaN   NaN   NaN   NaN
#> # … with 2,876 more rows
…
