Introduction to the motif package • motif
…
We can take a look at the last column:

landcover_comp$signature
#> [[1]]
#>           1       2     3    4    5     6      7
#> [1,] 862001 8122776 84482 4311 2677 78555 203444

It is a list of signatures. In this case, we have just one signature describing the whole area in the form of a numeric vector. It contains how many cells belong to each land cover category. For example, there are 8122776 cells of forest, but only 2677 cells of shrubland.

Another approach would be to divide this large area into many regular rectangles (we refer to them as local landscapes) and to calculate a signature in each of them. The previously used signature, "composition" has one important flaw though. It only describes how many cells of each category we have. However, it does not distinguish an area with the left half of forest and right half of agriculture from an area with forest mixed with agriculture (think of a checkerboard). Gladly, several more types of signatures exist. It includes a co-occurrence matrix (type = "coma"). "coma" goes to each cell, looks at its value, looks at the values of its neighbors and counts how many neighbors of each class our central cell has.

landcover_coma = lsp_thumbprint(landcover, type = "coma", window = 200)
landcover_coma
#> # A tibble: 232 x 3
#>       id na_prop signature        
#>  * <int>   <dbl> <list>           
#>  1     3  0.0992 <int[,7] [7 × 7]>
#>  2     4  0.145  <int[,7] [7 × 7]>
#>  3    38  0.255  <int[,7] [7 × 7]>
#>  4    39  0      <int[,7] [7 × 7]>
#>  5    40  0      <int[,7] [7 × 7]>
#>  6    41  0      <int[,7] [7 × 7]>
#>  7    42  0      <int[,7] [7 × 7]>
#>  8    43  0.115  <int[,7] [7 × 7]>
#>  9    77  0      <int[,7] [7 × 7]>
#> 10    78  0      <int[,7] [7 × 7]>
#> # … with 222 more rows
…
