Introduction to the motif package • motif
…
This time, we set the window argument to 200, which means that each local landscape will consist of 200 by 200 cells. In this example, each cell has a resolution of 300 by 300 meters, therefore a local landscape will be 60000 by 60000 meters (60 by 60 kilometers).

landcover_coma = lsp_signature(landcover, type = "coma", window = 200)
landcover_coma
#> # A tibble: 298 × 3
#>       id na_prop signature    
#>  * <int>   <dbl> <list>       
#>  1     2  0.644  <int [7 × 7]>
#>  2     3  0.0992 <int [7 × 7]>
#>  3     4  0.145  <int [7 × 7]>
#>  4     5  0.602  <int [7 × 7]>
#>  5     6  0.775  <int [7 × 7]>
#>  6     9  0.796  <int [7 × 7]>
#>  7    38  0.255  <int [7 × 7]>
#>  8    39  0      <int [7 × 7]>
#>  9    40  0      <int [7 × 7]>
#> 10    41  0      <int [7 × 7]>
#> # ℹ 288 more rows
…
Now, we need to provide this dataset and its identity column to the window argument of lsp_signature().

landcover_coma_e = lsp_signature(landcover, type = "coma", window = ecoregions["id"])
landcover_coma_e
#> # A tibble: 22 × 3
#>       id na_prop signature    
#>  * <int>   <dbl> <list>       
#>  1     1 0.114   <int [7 × 7]>
#>  2     2 0.0851  <int [7 × 7]>
#>  3     3 0.0377  <int [7 × 7]>
#>  4     4 0.0914  <int [7 × 7]>
#>  5     5 0       <int [7 × 7]>
#>  6     6 0       <int [7 × 7]>
#>  7     7 0.00285 <int [7 × 7]>
#>  8     8 0.0720  <int [7 × 7]>
#>  9     9 0.0508  <int [7 × 7]>
#> 10    10 0       <int [7 × 7]>
#> # ℹ 12 more rows
…
